time,emg,hr
55198.81640625,264.00,198.00
55198.974365234375,263.00,198.00
55199.101806640625,261.00,198.00
55199.2265625,261.00,198.00
55199.34912109375,260.00,198.00
55199.472412109375,263.00,198.00
55199.595703125,261.00,198.00
55199.718994140625,260.00,198.00
55199.862060546875,261.00,198.00
55214.83251953125,260.00,198.00
55214.9970703125,260.00,198.00
55215.131591796875,260.00,198.00
55215.263916015625,264.00,198.00
55215.394775390625,262.00,198.00
55215.526123046875,264.00,198.00
55215.664306640625,264.00,198.00
55215.78271484375,262.00,198.00
55232.79833984375,260.00,198.00
55232.958740234375,261.00,198.00
55233.08544921875,261.00,198.00
55233.235107421875,261.00,198.00
55233.361328125,262.00,198.00
55233.48583984375,260.00,198.00
55233.608642578125,261.00,198.00
55233.731201171875,262.00,198.00
55233.85400390625,259.00,198.00
55248.690673828125,261.00,198.00
55248.832763671875,263.00,198.00
55248.960693359375,260.00,198.00
55249.084716796875,260.00,198.00
55249.20849609375,263.00,198.00
55249.33203125,262.00,198.00
55249.45458984375,262.00,198.00
55249.576171875,260.00,198.00
55266.760986328125,261.00,198.00
55266.92041015625,260.00,198.00
55267.045654296875,262.00,198.00
55267.168212890625,261.00,198.00
55267.290771484375,262.00,198.00
55267.412353515625,259.00,198.00
55267.53369140625,260.00,198.00
55267.657470703125,262.00,198.00
55267.770751953125,261.00,198.00
55282.881591796875,259.00,198.00
55283.04296875,259.00,198.00
55283.187744140625,260.00,198.00
55283.31201171875,258.00,198.00
55283.432373046875,264.00,198.00
55283.554931640625,262.00,198.00
55283.676025390625,261.00,198.00
55283.797119140625,261.00,198.00
55300.63623046875,261.00,198.00
55300.778564453125,260.00,198.00
55300.906982421875,262.00,198.00
55301.031494140625,261.00,198.00
55301.154296875,263.00,198.00
55301.276611328125,264.00,198.00
55301.399169921875,262.00,198.00
55301.521728515625,261.00,198.00
55301.64453125,262.00,198.00
55316.833984375,259.00,198.00
55316.99267578125,261.00,198.00
55317.119140625,263.00,198.00
55317.2421875,260.00,198.00
55317.365478515625,262.00,198.00
55317.48681640625,261.00,198.00
55317.610595703125,263.00,198.00
55317.72802734375,261.00,198.00
55334.647216796875,259.00,198.00
55334.791748046875,260.00,198.00
55334.92041015625,264.00,198.00
55335.085693359375,263.00,198.00
55335.213134765625,263.00,198.00
55335.336181640625,260.00,198.00
55335.45751953125,260.00,198.00
55335.578857421875,262.00,198.00
55335.700927734375,263.00,198.00
55350.828369140625,260.00,198.00
55350.985107421875,259.00,198.00
55351.111572265625,261.00,198.00
55351.2353515625,263.00,198.00
55351.35693359375,262.00,198.00
55351.478759765625,262.00,198.00
55351.599853515625,263.00,198.00
55351.720458984375,262.00,198.00
55368.607421875,261.00,198.00
55368.757568359375,262.00,198.00
55368.88525390625,261.00,198.00
55369.010009765625,263.00,198.00
55369.13232421875,261.00,198.00
55369.25341796875,258.00,198.00
55369.37548828125,260.00,198.00
55369.49755859375,264.00,198.00
55369.62060546875,262.00,198.00
55384.78466796875,262.00,198.00
55384.9443359375,263.00,198.00
55385.071533203125,262.00,198.00
55385.196533203125,261.00,198.00
55385.318359375,261.00,198.00
55385.441650390625,260.00,198.00
55385.564453125,262.00,198.00
55385.68603515625,260.00,198.00
55385.80859375,260.00,198.00
55402.72021484375,260.00,198.00
55402.861572265625,261.00,198.00
55402.988525390625,262.00,198.00
55403.129638671875,261.00,198.00
55403.255126953125,260.00,198.00
55403.378173828125,259.00,198.00
55403.5078125,262.00,198.00
55403.625732421875,260.00,198.00
55420.760986328125,262.00,198.00
55420.921142578125,262.00,198.00
55421.04736328125,261.00,198.00
55421.1708984375,261.00,198.00
55421.2939453125,260.00,198.00
55421.41552734375,263.00,198.00
55421.536865234375,260.00,198.00
55421.65869140625,260.00,198.00
55421.780517578125,260.00,198.00
55436.897216796875,261.00,198.00
55437.04833984375,262.00,198.00
55437.176513671875,263.00,198.00
55437.301025390625,263.00,198.00
55437.423828125,263.00,198.00
55437.547119140625,258.00,198.00
55437.66943359375,261.00,198.00
55437.792236328125,260.00,198.00
55454.678955078125,260.00,198.00
55454.819091796875,263.00,198.00
55454.946044921875,261.00,198.00
55455.069091796875,261.00,198.00
55455.191650390625,264.00,198.00
55455.313232421875,260.00,198.00
55455.434326171875,260.00,198.00
55455.55615234375,260.00,198.00
55455.66943359375,259.00,198.00
55470.777587890625,264.00,198.00
55470.92919921875,260.00,198.00
55471.055419921875,261.00,198.00
55471.1806640625,263.00,198.00
55471.303466796875,261.00,198.00
55471.42578125,260.00,198.00
55471.5478515625,263.00,198.00
55471.673583984375,262.00,198.00
55488.65185546875,258.00,198.00
55488.794677734375,264.00,198.00
55488.920166015625,263.00,198.00
55489.0439453125,262.00,198.00
55489.166259765625,260.00,198.00
55489.298583984375,260.00,198.00
55489.422607421875,260.00,198.00
55489.54638671875,261.00,198.00
55489.66943359375,262.00,198.00
55504.84814453125,262.00,198.00
55505.0078125,261.00,198.00
55505.134521484375,262.00,198.00
55505.259765625,260.00,198.00
55505.3828125,260.00,198.00
55505.505126953125,258.00,198.00
55505.628662109375,261.00,198.00
55505.74365234375,261.00,198.00
55522.6328125,261.00,198.00
55522.776123046875,265.00,198.00
55522.903564453125,261.00,198.00
55523.02685546875,263.00,198.00
55523.167236328125,262.00,198.00
55523.290283203125,261.00,198.00
55523.41162109375,260.00,198.00
55523.531982421875,260.00,198.00
55523.653564453125,262.00,198.00
55538.843017578125,261.00,198.00
55538.999755859375,261.00,198.00
55539.12548828125,260.00,198.00
55539.26611328125,260.00,198.00
55539.391357421875,261.00,198.00
55539.51513671875,262.00,198.00
55539.63818359375,263.00,198.00
55539.761474609375,262.00,198.00
55556.65478515625,260.00,198.00
55556.798095703125,263.00,198.00
55556.92431640625,261.00,198.00
55557.047607421875,261.00,198.00
55557.169921875,265.00,198.00
55557.29296875,262.00,198.00
55557.41455078125,261.00,198.00
55557.536865234375,260.00,198.00
55557.657958984375,261.00,198.00
55572.7177734375,259.00,198.00
55572.871337890625,262.00,198.00
55573.004150390625,263.00,198.00
55573.151611328125,263.00,198.00
55573.28271484375,262.00,198.00
55573.411376953125,263.00,198.00
55573.537841796875,264.00,198.00
55573.6640625,260.00,198.00
55590.716796875,259.00,198.00
55590.861083984375,262.00,198.00
55590.99267578125,262.00,198.00
55591.12158203125,264.00,198.00
55591.249755859375,259.00,198.00
55591.375732421875,261.00,198.00
55591.501708984375,261.00,198.00
55591.632080078125,262.00,198.00
55591.738037109375,262.00,198.00
55606.6767578125,262.00,198.00
55606.818359375,262.00,198.00
55606.9443359375,259.00,198.00
55607.067138671875,261.00,198.00
55607.187744140625,261.00,198.00
55607.308837890625,262.00,198.00
55607.4287109375,261.00,198.00
55607.549560546875,260.00,198.00
55624.757080078125,261.00,198.00
55624.928466796875,261.00,198.00
55625.05517578125,261.00,198.00
55625.17822265625,263.00,198.00
55625.300048828125,261.00,198.00
55625.424072265625,264.00,198.00
55625.546142578125,260.00,198.00
55625.668701171875,261.00,198.00
55625.79052734375,262.00,198.00
55640.71435546875,262.00,198.00
55640.857421875,262.00,198.00
55640.985107421875,261.00,198.00
55641.109375,262.00,198.00
55641.23193359375,262.00,198.00
55641.35498046875,261.00,198.00
55641.477783203125,262.00,198.00
55641.60107421875,262.00,198.00
55641.7236328125,263.00,198.00
55658.86669921875,260.00,198.00
55659.026123046875,263.00,198.00
55659.152099609375,259.00,198.00
55659.27587890625,260.00,198.00
55659.397705078125,261.00,198.00
55659.518798828125,258.00,198.00
55659.640380859375,260.00,198.00
55659.76220703125,262.00,198.00
55676.692626953125,260.00,198.00
55676.832275390625,261.00,198.00
55676.957763671875,258.00,198.00
55677.08056640625,260.00,198.00
55677.201904296875,262.00,198.00
55677.3232421875,262.00,198.00
55677.44677734375,261.00,198.00
55677.57421875,262.00,198.00
55677.68212890625,260.00,198.00
55692.79833984375,261.00,198.00
55692.960693359375,262.00,198.00
55693.094970703125,263.00,198.00
55693.24462890625,262.00,198.00
55693.375,262.00,198.00
55693.50439453125,263.00,198.00
55693.63330078125,263.00,198.00
55693.76123046875,259.00,198.00
55710.7802734375,260.00,198.00
55710.943359375,262.00,198.00
55711.07763671875,259.00,198.00
55711.208251953125,262.00,198.00
55711.3369140625,260.00,198.00
55711.463623046875,263.00,198.00
55711.591552734375,259.00,198.00
55711.71728515625,260.00,198.00
55711.84326171875,261.00,198.00
55726.86279296875,260.00,198.00
55727.01904296875,262.00,198.00
55727.1455078125,264.00,198.00
55727.26953125,261.00,198.00
55727.3916015625,261.00,198.00
55727.5126953125,260.00,198.00
55727.64306640625,261.00,198.00
55727.747314453125,262.00,198.00
55744.91015625,261.00,198.00
55745.11181640625,261.00,198.00
55745.239501953125,262.00,198.00
55745.364501953125,263.00,198.00
55745.487548828125,263.00,198.00
55745.610595703125,260.00,198.00
55745.732666015625,261.00,198.00
55745.854736328125,260.00,198.00
55745.97705078125,259.00,198.00
55760.721435546875,262.00,198.00
55760.86328125,262.00,198.00
55760.98828125,259.00,198.00
55761.11083984375,262.00,198.00
55761.2333984375,262.00,198.00
55761.353759765625,261.00,198.00
55761.475341796875,262.00,198.00
55761.59619140625,260.00,198.00
55778.818115234375,262.00,198.00
55778.97802734375,262.00,198.00
55779.1044921875,259.00,198.00
55779.227783203125,260.00,198.00
55779.348388671875,262.00,198.00
55779.469482421875,261.00,198.00
55779.591796875,262.00,198.00
55779.714111328125,259.00,198.00
55779.84716796875,259.00,198.00
55794.693115234375,259.00,198.00
55794.833984375,259.00,198.00
55794.960205078125,259.00,198.00
55795.08349609375,261.00,198.00
55795.205078125,260.00,198.00
55795.32568359375,262.00,198.00
55795.4482421875,260.00,198.00
55795.5693359375,264.00,198.00
55812.66259765625,260.00,198.00
55812.814208984375,261.00,198.00
55812.939697265625,263.00,198.00
55813.0634765625,262.00,198.00
55813.20068359375,261.00,198.00
55813.324462890625,261.00,204.00
55813.44775390625,261.00,204.00
55813.5703125,260.00,204.00
55813.691650390625,264.00,204.00
55828.684326171875,260.00,204.00
55828.825439453125,261.00,204.00
55828.951416015625,260.00,204.00
55829.0751953125,263.00,204.00
55829.197509765625,261.00,204.00
55829.320556640625,263.00,204.00
55829.4423828125,263.00,204.00
55829.56396484375,262.00,204.00
55846.777099609375,262.00,204.00
55846.942138671875,261.00,204.00
55847.076171875,260.00,204.00
55847.249267578125,263.00,204.00
55847.38232421875,262.00,204.00
55847.510498046875,260.00,204.00
55847.6376953125,263.00,204.00
55847.76416015625,259.00,204.00
55847.89013671875,264.00,204.00
55862.82470703125,263.00,204.00
55862.983642578125,261.00,204.00
55863.127685546875,259.00,204.00
55863.251708984375,264.00,204.00
55863.37353515625,260.00,204.00
55863.495361328125,261.00,204.00
55863.615966796875,262.00,204.00
55863.736572265625,263.00,204.00
55880.759521484375,263.00,204.00
55880.933837890625,260.00,204.00
55881.06201171875,261.00,204.00
55881.18701171875,261.00,204.00
55881.309326171875,259.00,204.00
55881.43017578125,262.00,204.00
55881.551513671875,261.00,204.00
55881.672607421875,262.00,204.00
55881.802490234375,261.00,204.00
55896.697021484375,260.00,204.00
55896.8388671875,262.00,204.00
55896.96630859375,261.00,204.00
55897.091064453125,261.00,204.00
55897.213134765625,259.00,204.00
55897.337158203125,260.00,204.00
55897.457275390625,264.00,204.00
55897.57861328125,259.00,204.00
55897.69921875,259.00,204.00
55914.895751953125,263.00,204.00
55915.05517578125,259.00,204.00
55915.181640625,261.00,204.00
55915.30419921875,259.00,204.00
55915.4267578125,259.00,204.00
55915.54833984375,257.00,204.00
55915.671142578125,261.00,204.00
55915.793212890625,260.00,204.00
55932.8154296875,262.00,204.00
55932.973388671875,259.00,204.00
55933.099609375,261.00,204.00
55933.244873046875,261.00,204.00
55933.36669921875,259.00,204.00
55933.48828125,259.00,204.00
55933.60888671875,261.00,204.00
55933.73046875,261.00,204.00
55933.850830078125,261.00,204.00
55948.75537109375,262.00,204.00
55948.90087890625,261.00,204.00
55949.032958984375,261.00,204.00
55949.16162109375,262.00,204.00
55949.2900390625,261.00,204.00
55949.417236328125,260.00,204.00
55949.543701171875,262.00,204.00
55949.669677734375,260.00,204.00
55966.8330078125,259.00,204.00
55966.990966796875,262.00,204.00
55967.11865234375,262.00,204.00
55967.241455078125,259.00,204.00
55967.36279296875,260.00,204.00
55967.482421875,263.00,204.00
55967.6025390625,260.00,204.00
55967.72265625,263.00,204.00
55967.84228515625,259.00,204.00
55982.753173828125,259.00,204.00
55982.89990234375,259.00,204.00
55983.034423828125,261.00,204.00
55983.182861328125,263.00,204.00
55983.314697265625,261.00,204.00
55983.4453125,260.00,204.00
55983.573486328125,263.00,204.00
55983.70361328125,259.00,204.00
56000.829345703125,262.00,204.00
56000.98876953125,258.00,204.00
56001.115478515625,260.00,204.00
56001.23876953125,261.00,204.00
56001.361328125,262.00,204.00
56001.483642578125,260.00,204.00
56001.605224609375,259.00,204.00
56001.728759765625,262.00,204.00
56001.849609375,263.00,204.00
56016.720947265625,263.00,204.00
56016.8662109375,263.00,204.00
56016.999267578125,260.00,204.00
56017.12890625,262.00,204.00
56017.2568359375,262.00,204.00
56017.38525390625,261.00,204.00
56017.520751953125,259.00,204.00
56017.643310546875,259.00,204.00
56034.81396484375,261.00,204.00
56034.973388671875,263.00,204.00
56035.100341796875,263.00,204.00
56035.22265625,262.00,204.00
56035.344970703125,263.00,204.00
56035.466796875,262.00,204.00
56035.5888671875,264.00,204.00
56035.710205078125,261.00,204.00
56035.83154296875,259.00,204.00
56050.7333984375,263.00,204.00
56050.8740234375,262.00,204.00
56051.00048828125,261.00,204.00
56051.123779296875,260.00,204.00
56051.247314453125,261.00,204.00
56051.36962890625,259.00,204.00
56051.49267578125,261.00,204.00
56051.615966796875,262.00,204.00
56068.806396484375,259.00,204.00
56068.964599609375,263.00,204.00
56069.09033203125,262.00,204.00
56069.212890625,262.00,204.00
56069.33544921875,260.00,204.00
56069.45703125,261.00,204.00
56069.57763671875,261.00,204.00
56069.70556640625,262.00,204.00
56069.83642578125,261.00,204.00
56084.90380859375,262.00,204.00
56085.079345703125,262.00,204.00
56085.213134765625,263.00,204.00
56085.33837890625,262.00,204.00
56085.462646484375,260.00,204.00
56085.585205078125,262.00,204.00
56085.70751953125,261.00,204.00
56085.830078125,260.00,204.00
56102.651611328125,259.00,204.00
56102.796875,259.00,204.00
56102.92529296875,261.00,204.00
